CommitID,LocalRepoName,TargetDirectory
6b052db418568e7b83649740a68d0695141346bc,units.amounts,lib\vs\core
83759c2501da06f9687102060cf12143ba17cd9b,automata,lib\vs\algorithms
e72e18b0656fea8f7c693151a1863e88d329a84c,enums,lib\vs\core
36a599c7e06ea83a08056694a599c9bf68c8a5d9,json,lib\vs\core
8f6daf7c5dee181c2a5729b71cc8712336e42932,tracing,lib\vs\core
852f9c5351a9b79c43ad017f431394aa16c56a1c,std,lib\vs\core
8f6daf7c5dee181c2a5729b71cc8712336e42932,tracing,lib\vs\core
83ec2c7c995dd7b3ba6d1f6ecc6113bdd8adcafe,modbus,lib\vs\io
76fb1cf60bcc6a898b62b442acfbc7f16de74f29,ide,libraries\vs\core
